Case Study 02 DDS
…
#Prediction Salary(MonthlyIncome) for the CaseStudy2 dataset with NO Salary 
CaseStudy2CompSet_NO_Salary$SalaryPreds = predict(SalaryPrediction_model,newdata = CaseStudy2CompSet_NO_Salary)

view(CaseStudy2CompSet_NO_Salary)

#Create dataframe with ID and Salary Predictions only
ID_SalaryPreds_Dataframe <- CaseStudy2CompSet_NO_Salary[,c("ID","SalaryPreds")]
ID_SalaryPreds_Dataframe

## # A tibble: 300 x 2
##       ID SalaryPreds
##    <dbl>       <dbl>
##  1   871       5690.
##  2   872       2744.
##  3   873      13014.
##  4   874       2403.
##  5   875       3005.
##  6   876       5152.
##  7   877       5465.
##  8   878       2047.
##  9   879       3004.
## 10   880      13551.
## # ... with 290 more rows
…
