Budweiser Case Study
…
str(StateCount)

## Classes 'tbl_df', 'tbl' and 'data.frame':    51 obs. of  2 variables:
##  $ State_ABV                   : chr  "AK" "AL" "AR" "AZ" ...
##  $ Number of Breweries in State: int  7 3 2 11 39 47 8 1 2 15 ...

view(StateCount)

##Arrange States in descending order base on number of breweries
arrange(StateCount,desc(StateCount$`Number of Breweries in State`))

## # A tibble: 51 x 2
##    State_ABV `Number of Breweries in State`
##    <chr>                              <int>
##  1 CO                                    47
##  2 CA                                    39
##  3 MI                                    32
##  4 OR                                    29
##  5 TX                                    28
##  6 PA                                    25
##  7 MA                                    23
##  8 WA                                    23
##  9 IN                                    22
## 10 WI                                    20
## # ... with 41 more rows
…
Answer: Acording to our dataset, there are 558 breweries in the US.

#Question 2: Merge beer data with breweries data. Print the first 6 observations and the last six observations to check the merged file

##Merging the two datasets into one using a full join
TotalDataSet <- full_join(Beers,Breweries, by = c("Brewery_id" = "Brew_ID"))
TotalDataSet

## # A tibble: 2,410 x 10
##    Name.x  Beer_ID   ABV   IBU Brewery_id Style  Ounces Name.y  City  State
##    <chr>     <dbl> <dbl> <dbl>      <dbl> <chr>   <dbl> <chr>   <chr> <chr>
##  1 Pub Be~    1436 0.05     NA        409 Ameri~     12 10 Bar~ Bend  OR   
##  2 Devil'~    2265 0.066    NA        178 Ameri~     12 18th S~ Gary  IN   
##  3 Rise o~    2264 0.071    NA        178 Ameri~     12 18th S~ Gary  IN   
##  4 Sinist~    2263 0.09     NA        178 Ameri~     12 18th S~ Gary  IN   
##  5 Sex an~    2262 0.075    NA        178 Ameri~     12 18th S~ Gary  IN   
##  6 Black ~    2261 0.077    NA        178 Oatme~     12 18th S~ Gary  IN   
##  7 Lake S~    2260 0.045    NA        178 Ameri~     12 18th S~ Gary  IN   
##  8 Foreman    2259 0.065    NA        178 Ameri~     12 18th S~ Gary  IN   
##  9 Jade       2258 0.055    NA        178 Ameri~     12 18th S~ Gary  IN   
## 10 Cone C~    2131 0.086    NA        178 Ameri~     12 18th S~ Gary  IN   
## # ... with 2,400 more rows
…
Answer: The missing values in ABV and IBU will be dropped using na.rm = TRUE equation or I will all the missing values to natural be ignored during aggregation calculations. To perform k-NN classfication models, I will delete all the observations with missing values using the na.omit() function.

#Question 4: Compute the median alcohol content and international bitterness unit for each state. Plot a bar chart to compare.

##Calculation of State median ABVs and IBUs
State_Medians_for_ABV_IBU <- TotalDataSet %>% 
  group_by(State) %>% 
  summarize(count=n(),
    Median_ABV=median(ABV,na.rm=TRUE),
    Median_IBU=median(IBU,na.rm = TRUE))

arrange(State_Medians_for_ABV_IBU,desc(Median_IBU))

## # A tibble: 51 x 4
##    State count Median_ABV Median_IBU
##    <chr> <int>      <dbl>      <dbl>
##  1 ME       27     0.051        61  
##  2 WV        2     0.062        57.5
##  3 FL       58     0.057        55  
##  4 GA       16     0.055        55  
##  5 DE        2     0.055        52  
##  6 NM       14     0.062        51  
##  7 NH        8     0.055        48.5
##  8 DC        8     0.0625       47.5
##  9 NY       74     0.055        47  
## 10 AK       25     0.056        46  
## # ... with 41 more rows

arrange(State_Medians_for_ABV_IBU,desc(Median_ABV))

## # A tibble: 51 x 4
##    State count Median_ABV Median_IBU
##    <chr> <int>      <dbl>      <dbl>
##  1 DC        8     0.0625       47.5
##  2 KY       21     0.0625       31.5
##  3 MI      162     0.062        35  
##  4 NM       14     0.062        51  
##  5 WV        2     0.062        57.5
##  6 CO      265     0.0605       40  
##  7 AL       10     0.06         43  
##  8 CT       27     0.06         29  
##  9 NV       11     0.06         41  
## 10 OK       19     0.06         35  
## # ... with 41 more rows
…
